vn\com\application\grpc\CarCenter$CustomerRequest$1.class
vn\com\application\grpc\CustomerServiceGrpc$CustomerServiceBaseDescriptorSupplier.class
vn\com\application\grpc\CarCenter$CustomerRequestOrBuilder.class
vn\com\application\grpc\CarCenter$RequestType$1.class
vn\com\application\grpc\CustomerServiceGrpc$CustomerServiceMethodDescriptorSupplier.class
vn\com\application\grpc\CarCenter$RequestType.class
vn\com\application\grpc\CarCenter$DelegateRequest$Builder.class
vn\com\application\grpc\CustomerServiceGrpc$CustomerServiceFutureStub.class
vn\com\application\grpc\CustomerServiceGrpc$MethodHandlers.class
vn\com\application\grpc\CarCenter$DelegateRequestOrBuilder.class
vn\com\application\grpc\CarCenter$Message$1.class
vn\com\application\grpc\CarCenter$Message.class
vn\com\application\grpc\CustomerServiceGrpc$1.class
vn\com\application\grpc\CustomerServiceGrpc$CustomerServiceStub.class
vn\com\application\grpc\CustomerServiceGrpc$CustomerServiceFileDescriptorSupplier.class
vn\com\application\grpc\CustomerServiceGrpc$CustomerServiceBlockingStub.class
vn\com\application\grpc\CarCenter$CustomerRequest$Builder.class
vn\com\application\grpc\CarCenter$DelegateRequest.class
vn\com\application\grpc\CarCenter.class
vn\com\application\grpc\CarCenter$1.class
vn\com\application\grpc\CarCenter$CustomerRequest.class
vn\com\application\grpc\CarCenter$Message$Builder.class
vn\com\application\grpc\CustomerServiceGrpc$CustomerServiceImplBase.class
vn\com\application\grpc\CustomerServiceGrpc.class
vn\com\application\grpc\CarCenter$DelegateRequest$1.class
vn\com\application\grpc\CarCenter$MessageOrBuilder.class
